APBSLAVE_SV/dump.vcd
$date
	Fri Mar 11 15:49:00 2022
$end
$version
	QuestaSim Version 10.7c
$end
$timescale
	1ps
$end

$scope module top $end
$var reg 1 ! clk $end

$scope module apb_slave_intf $end
$var wire 1 " clk $end
$var wire 1 # rst $end
$var wire 1 $ p_sel $end
$var wire 1 % p_write $end
$var wire 1 & p_en $end
$var wire 1 ' addr [7] $end
$var wire 1 ( addr [6] $end
$var wire 1 ) addr [5] $end
$var wire 1 * addr [4] $end
$var wire 1 + addr [3] $end
$var wire 1 , addr [2] $end
$var wire 1 - addr [1] $end
$var wire 1 . addr [0] $end
$var wire 1 / wdata [31] $end
$var wire 1 0 wdata [30] $end
$var wire 1 1 wdata [29] $end
$var wire 1 2 wdata [28] $end
$var wire 1 3 wdata [27] $end
$var wire 1 4 wdata [26] $end
$var wire 1 5 wdata [25] $end
$var wire 1 6 wdata [24] $end
$var wire 1 7 wdata [23] $end
$var wire 1 8 wdata [22] $end
$var wire 1 9 wdata [21] $end
$var wire 1 : wdata [20] $end
$var wire 1 ; wdata [19] $end
$var wire 1 < wdata [18] $end
$var wire 1 = wdata [17] $end
$var wire 1 > wdata [16] $end
$var wire 1 ? wdata [15] $end
$var wire 1 @ wdata [14] $end
$var wire 1 A wdata [13] $end
$var wire 1 B wdata [12] $end
$var wire 1 C wdata [11] $end
$var wire 1 D wdata [10] $end
$var wire 1 E wdata [9] $end
$var wire 1 F wdata [8] $end
$var wire 1 G wdata [7] $end
$var wire 1 H wdata [6] $end
$var wire 1 I wdata [5] $end
$var wire 1 J wdata [4] $end
$var wire 1 K wdata [3] $end
$var wire 1 L wdata [2] $end
$var wire 1 M wdata [1] $end
$var wire 1 N wdata [0] $end
$var reg 32 O rdata [31:0] $end
$var reg 1 P p_ready $end
$var integer 32 Q i $end
$upscope $end

$scope module tb_inst $end
$upscope $end
$upscope $end
$enddefinitions $end
#0
$dumpvars
0!
b0 O
0P
b100000000 Q
0"
0#
x$
x&
x%
x.
x-
x,
x+
x*
x)
x(
x'
xN
xM
xL
xK
xJ
xI
xH
xG
xF
xE
xD
xC
xB
xA
x@
x?
x>
x=
x<
x;
x:
x9
x8
x7
x6
x5
x4
x3
x2
x1
x0
x/
$end
#5000
1!
1"
b0 Q
b1 Q
b10 Q
b11 Q
b100 Q
b101 Q
b110 Q
b111 Q
b1000 Q
b1001 Q
b1010 Q
b1011 Q
b1100 Q
b1101 Q
b1110 Q
b1111 Q
b10000 Q
b10001 Q
b10010 Q
b10011 Q
b10100 Q
b10101 Q
b10110 Q
b10111 Q
b11000 Q
b11001 Q
b11010 Q
b11011 Q
b11100 Q
b11101 Q
b11110 Q
b11111 Q
b100000 Q
b100001 Q
b100010 Q
b100011 Q
b100100 Q
b100101 Q
b100110 Q
b100111 Q
b101000 Q
b101001 Q
b101010 Q
b101011 Q
b101100 Q
b101101 Q
b101110 Q
b101111 Q
b110000 Q
b110001 Q
b110010 Q
b110011 Q
b110100 Q
b110101 Q
b110110 Q
b110111 Q
b111000 Q
b111001 Q
b111010 Q
b111011 Q
b111100 Q
b111101 Q
b111110 Q
b111111 Q
b1000000 Q
b1000001 Q
b1000010 Q
b1000011 Q
b1000100 Q
b1000101 Q
b1000110 Q
b1000111 Q
b1001000 Q
b1001001 Q
b1001010 Q
b1001011 Q
b1001100 Q
b1001101 Q
b1001110 Q
b1001111 Q
b1010000 Q
b1010001 Q
b1010010 Q
b1010011 Q
b1010100 Q
b1010101 Q
b1010110 Q
b1010111 Q
b1011000 Q
b1011001 Q
b1011010 Q
b1011011 Q
b1011100 Q
b1011101 Q
b1011110 Q
b1011111 Q
b1100000 Q
b1100001 Q
b1100010 Q
b1100011 Q
b1100100 Q
b1100101 Q
b1100110 Q
b1100111 Q
b1101000 Q
b1101001 Q
b1101010 Q
b1101011 Q
b1101100 Q
b1101101 Q
b1101110 Q
b1101111 Q
b1110000 Q
b1110001 Q
b1110010 Q
b1110011 Q
b1110100 Q
b1110101 Q
b1110110 Q
b1110111 Q
b1111000 Q
b1111001 Q
b1111010 Q
b1111011 Q
b1111100 Q
b1111101 Q
b1111110 Q
b1111111 Q
b10000000 Q
b10000001 Q
b10000010 Q
b10000011 Q
b10000100 Q
b10000101 Q
b10000110 Q
b10000111 Q
b10001000 Q
b10001001 Q
b10001010 Q
b10001011 Q
b10001100 Q
b10001101 Q
b10001110 Q
b10001111 Q
b10010000 Q
b10010001 Q
b10010010 Q
b10010011 Q
b10010100 Q
b10010101 Q
b10010110 Q
b10010111 Q
b10011000 Q
b10011001 Q
b10011010 Q
b10011011 Q
b10011100 Q
b10011101 Q
b10011110 Q
b10011111 Q
b10100000 Q
b10100001 Q
b10100010 Q
b10100011 Q
b10100100 Q
b10100101 Q
b10100110 Q
b10100111 Q
b10101000 Q
b10101001 Q
b10101010 Q
b10101011 Q
b10101100 Q
b10101101 Q
b10101110 Q
b10101111 Q
b10110000 Q
b10110001 Q
b10110010 Q
b10110011 Q
b10110100 Q
b10110101 Q
b10110110 Q
b10110111 Q
b10111000 Q
b10111001 Q
b10111010 Q
b10111011 Q
b10111100 Q
b10111101 Q
b10111110 Q
b10111111 Q
b11000000 Q
b11000001 Q
b11000010 Q
b11000011 Q
b11000100 Q
b11000101 Q
b11000110 Q
b11000111 Q
b11001000 Q
b11001001 Q
b11001010 Q
b11001011 Q
b11001100 Q
b11001101 Q
b11001110 Q
b11001111 Q
b11010000 Q
b11010001 Q
b11010010 Q
b11010011 Q
b11010100 Q
b11010101 Q
b11010110 Q
b11010111 Q
b11011000 Q
b11011001 Q
b11011010 Q
b11011011 Q
b11011100 Q
b11011101 Q
b11011110 Q
b11011111 Q
b11100000 Q
b11100001 Q
b11100010 Q
b11100011 Q
b11100100 Q
b11100101 Q
b11100110 Q
b11100111 Q
b11101000 Q
b11101001 Q
b11101010 Q
b11101011 Q
b11101100 Q
b11101101 Q
b11101110 Q
b11101111 Q
b11110000 Q
b11110001 Q
b11110010 Q
b11110011 Q
b11110100 Q
b11110101 Q
b11110110 Q
b11110111 Q
b11111000 Q
b11111001 Q
b11111010 Q
b11111011 Q
b11111100 Q
b11111101 Q
b11111110 Q
b11111111 Q
b100000000 Q
1#
#10000
0!
0"
#15000
1!
1"
#20000
0!
0"
#25000
1!
1"
1$
1&
1%
1N
1M
1L
0K
0J
0I
0H
1G
0F
0E
0D
0C
0B
0A
0@
0?
0>
0=
0<
0;
0:
09
08
07
06
05
04
03
02
01
00
0/
0.
0-
0,
0+
1*
0)
0(
0'
#30000
0!
0"
#35000
1!
1"
1P
x%
#40000
0!
0"
#45000
1!
1"
b10000111 O
0%
#50000
0!
0"
#55000
1!
1"
x%
#60000
0!
0"
#65000
1!
1"
1%
0N
0M
0L
1J
1I
1H
0G
1-
1+
0*
#70000
0!
0"
#75000
1!
1"
x%
#80000
0!
0"
#85000
1!
1"
b1110000 O
0%
#90000
0!
0"
#95000
1!
1"
x%
#100000
0!
0"
#105000
1!
1"
1%
1M
1K
0I
0H
1G
1.
0-
#110000
0!
0"
#115000
1!
1"
x%
#120000
0!
0"
#125000
1!
1"
b10011010 O
0%
#130000
0!
0"
#135000
1!
1"
x%
#140000
0!
0"
#145000
1!
1"
1%
0M
0K
1I
1H
0+
1*
#150000
0!
0"
#155000
1!
1"
x%
#160000
0!
0"
#165000
1!
1"
b11110000 O
0%
#170000
0!
0"
#175000
1!
1"
x%
#180000
0!
0"
#185000
1!
1"
1%
1N
1M
1L
1K
0I
0G
0.
1,
1+
0*
#190000
0!
0"
#195000
1!
1"
x%
#200000
0!
0"
#205000
1!
1"
b1011111 O
0%
#210000
0!
0"
#215000
1!
1"
x%
#220000
0!
0"
#225000
1!
1"
1%
0M
0K
0J
1I
0H
1.
#230000
0!
0"
#235000
1!
1"
x%
#240000
0!
0"
#245000
1!
1"
b100101 O
0%
#250000
0!
0"
#255000
1!
1"
x%
#260000
0!
0"
#265000
1!
1"
1%
1M
0L
1J
1H
0.
1-
#270000
0!
0"
#275000
1!
1"
x%
#280000
0!
0"
#285000
1!
1"
b1110011 O
0%
#290000
0!
0"
#295000
1!
1"
x%
#300000
0!
0"
#305000
1!
1"
1%
0N
0I
1.
0+
#310000
0!
0"
#315000
1!
1"
x%
#320000
0!
0"
#325000
1!
1"
b1010010 O
0%
#330000
0!
0"
#335000
1!
1"
x%
#340000
0!
0"
#345000
1!
1"
1%
1N
1L
0.
#350000
0!
0"
#355000
1!
1"
x%
#360000
0!
0"
#365000
1!
1"
b1010111 O
0%
#370000
0!
0"
#375000
1!
1"
x%
#380000
0!
0"
#385000
1!
1"
1%
0L
0J
1I
1.
0-
0,
#390000
0!
0"
#395000
1!
1"
x%
#400000
0!
0"
#405000
1!
1"
b1100011 O
0%
#410000
0!
0"
#415000
1!
1"
x%
